{"level":"info","msg":"gRPC serving :3500","time":"2016-04-12T19:38:02Z"}
{"level":"info","msg":"Working directory: /home/gyuho","time":"2016-04-12T19:38:16Z"}
{"level":"info","msg":"etcd data directory: /home/gyuho/data.etcd","time":"2016-04-12T19:38:16Z"}
{"level":"info","msg":"Consul data directory: /home/gyuho/data.consul","time":"2016-04-12T19:38:16Z"}
{"level":"info","msg":"Zookeeper working directory: /home/gyuho/zookeeper","time":"2016-04-12T19:38:16Z"}
{"level":"info","msg":"Zookeeper data directory: /home/gyuho/zookeeper/data.zk","time":"2016-04-12T19:38:16Z"}
{"level":"info","msg":"Database log path: /home/gyuho/database.log","time":"2016-04-12T19:38:16Z"}
{"level":"info","msg":"Monitor result path: /home/gyuho/monitor.csv","time":"2016-04-12T19:38:16Z"}
{"level":"info","msg":"Starting: /home/gyuho/go/bin/etcd --name etcd-2 --data-dir /home/gyuho/data.etcd --listen-client-urls http://10.240.0.13:2379 --advertise-client-urls http://10.240.0.13:2379 --listen-peer-urls http://10.240.0.13:2380 --initial-advertise-peer-urls http://10.240.0.13:2380 --initial-cluster-token etcd_token --initial-cluster etcd-1=http://10.240.0.7:2380,etcd-2=http://10.240.0.13:2380,etcd-3=http://10.240.0.14:2380 --initial-cluster-state new","time":"2016-04-12T19:38:16Z"}
{"level":"info","msg":"Started: /home/gyuho/go/bin/etcd [PID: 17980]","time":"2016-04-12T19:38:16Z"}
{"level":"info","msg":"Transfer success!","time":"2016-04-12T19:38:16Z"}
{"level":"info","msg":"etcdv3 monitor saved at /home/gyuho/monitor.csv","time":"2016-04-12T19:38:16Z"}
{"level":"info","msg":"Stopping etcdv3 [PID: 17980]","time":"2016-04-12T19:39:48Z"}
{"level":"info","msg":"Stopped: /home/gyuho/go/bin/etcd [PID: 17980]","time":"2016-04-12T19:39:48Z"}
{"level":"info","msg":"Transfer success!","time":"2016-04-12T19:39:48Z"}
{"level":"info","msg":"Monitoring stopped. Uploading data to cloud storage...","time":"2016-04-12T19:39:48Z"}
{"level":"info","msg":"Uploading /home/gyuho/database.log to bench-02-etcdv3-2-database.log","time":"2016-04-12T19:39:48Z"}
{"level":"info","msg":"/home/gyuho/go/bin/etcd cmd.Wait returned signal: terminated","time":"2016-04-12T19:39:48Z"}
{"level":"info","msg":"Uploading /home/gyuho/monitor.csv to bench-02-etcdv3-2-monitor.csv","time":"2016-04-12T19:39:49Z"}
{"level":"info","msg":"Uploading /home/gyuho/agent.log to bench-02-etcdv3-2-agent.log","time":"2016-04-12T19:39:50Z"}
