{"level":"info","msg":"gRPC serving :3500","time":"2016-04-16T16:56:37Z"}
{"level":"info","msg":"Working directory: /home/gyuho","time":"2016-04-16T16:59:00Z"}
{"level":"info","msg":"etcd data directory: /home/gyuho/data.etcd","time":"2016-04-16T16:59:00Z"}
{"level":"info","msg":"Consul data directory: /home/gyuho/data.consul","time":"2016-04-16T16:59:00Z"}
{"level":"info","msg":"Zookeeper working directory: /home/gyuho/zookeeper","time":"2016-04-16T16:59:00Z"}
{"level":"info","msg":"Zookeeper data directory: /home/gyuho/zookeeper/data.zk","time":"2016-04-16T16:59:00Z"}
{"level":"info","msg":"Database log path: /home/gyuho/database.log","time":"2016-04-16T16:59:00Z"}
{"level":"info","msg":"Monitor result path: /home/gyuho/monitor.csv","time":"2016-04-16T16:59:00Z"}
{"level":"info","msg":"Starting: /home/gyuho/go/bin/etcd --name etcd-1 --data-dir /home/gyuho/data.etcd --listen-client-urls http://10.240.0.20:2379 --advertise-client-urls http://10.240.0.20:2379 --listen-peer-urls http://10.240.0.20:2380 --initial-advertise-peer-urls http://10.240.0.20:2380 --initial-cluster-token etcd_token --initial-cluster etcd-1=http://10.240.0.20:2380,etcd-2=http://10.240.0.21:2380,etcd-3=http://10.240.0.22:2380 --initial-cluster-state new","time":"2016-04-16T16:59:00Z"}
{"level":"info","msg":"Started: /home/gyuho/go/bin/etcd [PID: 18433]","time":"2016-04-16T16:59:00Z"}
{"level":"info","msg":"Transfer success!","time":"2016-04-16T16:59:00Z"}
{"level":"info","msg":"etcdv3 monitor saved at /home/gyuho/monitor.csv","time":"2016-04-16T16:59:00Z"}
{"level":"info","msg":"Stopping etcdv3 [PID: 18433]","time":"2016-04-16T17:00:36Z"}
{"level":"info","msg":"Stopped: /home/gyuho/go/bin/etcd [PID: 18433]","time":"2016-04-16T17:00:36Z"}
{"level":"info","msg":"Transfer success!","time":"2016-04-16T17:00:36Z"}
{"level":"info","msg":"Monitoring stopped. Uploading data to cloud storage...","time":"2016-04-16T17:00:36Z"}
{"level":"info","msg":"Uploading /home/gyuho/database.log to 2016041601/04-etcdv3-go1.6-1-database.log","time":"2016-04-16T17:00:36Z"}
{"level":"info","msg":"/home/gyuho/go/bin/etcd cmd.Wait returned signal: terminated","time":"2016-04-16T17:00:36Z"}
{"level":"info","msg":"googleapi: Error 429: The project exceeded the rate limit for creating and deleting buckets., rateLimitExceeded","time":"2016-04-16T17:00:36Z"}
{"level":"info","msg":"googleapi: Error 429: The project exceeded the rate limit for creating and deleting buckets., rateLimitExceeded","time":"2016-04-16T17:00:38Z"}
{"level":"info","msg":"googleapi: Error 429: The project exceeded the rate limit for creating and deleting buckets., rateLimitExceeded","time":"2016-04-16T17:00:40Z"}
{"level":"info","msg":"googleapi: Error 429: The project exceeded the rate limit for creating and deleting buckets., rateLimitExceeded","time":"2016-04-16T17:00:42Z"}
{"level":"info","msg":"Uploading /home/gyuho/monitor.csv to 2016041601/04-etcdv3-go1.6-1-monitor.csv","time":"2016-04-16T17:00:45Z"}
{"level":"info","msg":"googleapi: Error 429: The project exceeded the rate limit for creating and deleting buckets., rateLimitExceeded","time":"2016-04-16T17:00:46Z"}
{"level":"info","msg":"googleapi: Error 429: The project exceeded the rate limit for creating and deleting buckets., rateLimitExceeded","time":"2016-04-16T17:00:48Z"}
{"level":"info","msg":"googleapi: Error 429: The project exceeded the rate limit for creating and deleting buckets., rateLimitExceeded","time":"2016-04-16T17:00:50Z"}
{"level":"info","msg":"googleapi: Error 429: The project exceeded the rate limit for creating and deleting buckets., rateLimitExceeded","time":"2016-04-16T17:00:52Z"}
{"level":"info","msg":"googleapi: Error 429: The project exceeded the rate limit for creating and deleting buckets., rateLimitExceeded","time":"2016-04-16T17:00:54Z"}
{"level":"info","msg":"Uploading /home/gyuho/agent.log to 2016041601/04-etcdv3-go1.6-1-agent.log","time":"2016-04-16T17:00:57Z"}
